08/09/2014 10:58:54.468 [INFO] br.com.uniriotec.Machine.Artifact.ProcessModelFactory.createProcessModelFromJson: Creating the process model from the .json file  located at '/C:/Users/rrodrigues/Documents/PersonalWorkspace/Mestrado/Workspace/NlgFramework/Machine-Artifact/target/test-classes/Hotel_Service_English.json' ...
08/09/2014 10:58:54.855 [INFO] br.com.uniriotec.Machine.Artifact.ProcessModelFactory.createProcessModelFromJsonFile: ...starting to parse the file: Converting to String through Gson API...
08/09/2014 10:58:55.041 [INFO] br.com.uniriotec.Machine.Artifact.ProcessModelFactory.createProcessModelFromJsonFile: ...parsing completed! Now assembling the ProcessModel instance from the String...
08/09/2014 10:58:55.111 [INFO] br.com.uniriotec.Machine.Artifact.ProcessModelFactory.createProcessModelFromJsonFile: ...assemblying completed! New ProcessModel instance created succesuful!
